…
This also means that the report below is based on the full data but we
cannot share all of this data in the repository. Instead, we can share
only derived measures and samples. We have tried to make our analysis as
perspicuous as possible by including the code used to generate the
measures and samples in the [Rmd code](./2_analyses.Rmd).

# Data overview and map

The subset of corpora considered here amounts to around 800 hours of
speech, or 9.3 million words, segmented into 1.6 million annotations
produced by over 11.000 participants.

    ## # A tibble: 63 x 6
    ##    language       turns  words minutes  hours people
    ##    <chr>          <int>  <dbl>   <dbl>  <dbl>  <int>
    ##  1 +Akhoe           721   3253    28.7  0.478     18
    ##  2 Akpes            635   3965    17.8  0.296      4
    ##  3 Ambel           1509   6601    42.0  0.700     22
    ##  4 Anal            6767  26826   278.   4.63      54
    ##  5 Arabic         33120 201207  1211.  20.2      365
    ##  6 Arapaho         4821  55850   243.   4.06     109
    ##  7 Baa             1361  12553    65.3  1.09       7
    ##  8 Br. Portuguese  3242  17109    88.4  1.47       2
    ##  9 Catalan        11059  93827   398.   6.64      83
    ## 10 Chitkuli        1123  13462    68.3  1.14      20
    ## # ... with 53 more rows
…
## Table of language data

This table shows language name, family, glottocode and citation key. The
paper contains full bibliographic metadata.

    ## # A tibble: 63 x 4
    ##    Language       Family         glottocode Citation                            
    ##    <chr>          <chr>          <chr>      <chr>                               
    ##  1 +Akhoe         Khoe-Kwadi     haio1238   widlokCollectionAkhoeHai2007        
    ##  2 Akpes          Atlantic-Congo akpe1248   lauDocumentingAbesabesi2019         
    ##  3 Ambel          Austronesian   waig1244   arnoldDocumentationAmbelAustronesia~
    ##  4 Anal           Sino-Tibetan   anal1239   ozerovCommunitydrivenDocumentationN~
    ##  5 Arabic         Afro-Asiatic   egyp1253   canavanalexandraCALLHOMEEgyptianAra~
    ##  6 Arapaho        Algic          arap1274   cowellConversationalDatabaseArapaho~
    ##  7 Baa            Atlantic-Congo kwaa1262   mollernwadigoDocumentationProjectBa~
    ##  8 Br. Portuguese Indo-European  braz1246   dasilvaProjetoNormaUrbana1996       
    ##  9 Catalan        Indo-European  stan1289   garridoGlissandoCorpusMultidiscipli~
    ## 10 Chitkuli       Sino-Tibetan   chit1279   martinezDocumentaryCorpusChhitkulRa~
    ## # ... with 53 more rows
